Take-home Exercise 1final – ISSS608-VAA
…
3.Data Import

In sections 3 and 4, I will explain all the steps of data processing — from reading the raw data to generating the final dataset. I will use the tidyverse package for data cleaning and readxl for reading the data.

3.1 Importing .xlsx file

The following code block uses the read_excel() function from the readxl package to import the original dataset. This data originates from the file Database paper.xlsx.

Code

library(readxl)
raw_dataset <- read_excel("data/Database paper.xlsx")
raw_dataset

# A tibble: 2,170 × 22
    Year Gender Policy_Stu Minority_Stu Poor_Stu Father_Edu Mother_Edu
   <dbl>  <dbl>      <dbl>        <dbl>    <dbl>      <dbl>      <dbl>
 1     5      2          2            2        2          4          4
 2     5      1          2            2        2          3          3
 3     5      2          2            2        2          4          4
 4     5      2          2            2        2          5          4
 5     5      1          1            2        2          2          3
 6     5      2          2            2        2          5          5
 7     5      2          2            2        2          6          5
 8     5      2          2            2        2          5          4
 9     5      2          2            2        2          5          5
10     5      2          2            2        2          5          4
# ℹ 2,160 more rows
# ℹ 15 more variables: Father_Occupation <dbl>, Mother_Occupation <dbl>,
#   Time_Friends <dbl>, Time_SocicalMedia <dbl>, Time_Studying <dbl>,
#   GPA <dbl>, Adapt_Learning_Uni <dbl>, Study_Methods <dbl>,
#   SupportOf_Uni <dbl>, SupportOf_Lec <dbl>, Facilitie_Uni <dbl>,
#   Quality_Lecturer <dbl>, TrainingCurriculum <dbl>, Competitive_Class <dbl>,
#   InfuenceF_Friends <dbl>
…
